// Jest Snapshot v1, https://goo.gl/fbAQLP

exports[`<Field /> Should Match The Snapshot 1`] = `
<div>
  <div
    class="field undefined"
  >
    <!--v-if-->
    <input
      id="field"
      name="field"
      type="text"
    />
  </div>
</div>
`;
